module codeberg.org/momar/drop/hop

go 1.13

require (
	github.com/Microsoft/go-winio v0.4.14 // indirect
	github.com/docker/distribution v2.7.1+incompatible // indirect
	github.com/docker/docker v1.13.1
	github.com/docker/go-connections v0.4.0 // indirect
	github.com/docker/go-units v0.4.0 // indirect
	github.com/muesli/termenv v0.4.0
	github.com/opencontainers/go-digest v1.0.0-rc1 // indirect
	github.com/pkg/errors v0.9.1 // indirect
	github.com/stretchr/testify v1.4.0 // indirect
	golang.org/x/net v0.0.0-20200114155413-6afb5195e5aa // indirect
)
